C:\PractitionerBackend\nuevorepositorio\demo\src\main\java\net\techu\SaludoController.java
C:\PractitionerBackend\nuevorepositorio\demo\src\main\java\net\techu\BeanContexto.java
C:\PractitionerBackend\nuevorepositorio\demo\src\main\java\com\example\demo\BeanPersonalizacion.java
C:\PractitionerBackend\nuevorepositorio\demo\src\main\java\net\techu\ProductosController.java
C:\PractitionerBackend\nuevorepositorio\demo\src\main\java\net\techu\ProductosV3Controller.java
C:\PractitionerBackend\nuevorepositorio\demo\src\main\java\com\example\demo\DemoApplication.java
C:\PractitionerBackend\nuevorepositorio\demo\src\main\java\net\techu\data\ProductoRepository.java
C:\PractitionerBackend\nuevorepositorio\demo\src\main\java\net\techu\data\ProductoMongo.java
C:\PractitionerBackend\nuevorepositorio\demo\src\main\java\net\techu\ProductosV2Controller.java
C:\PractitionerBackend\nuevorepositorio\demo\src\main\java\net\techu\ProductosV4Controller.java
C:\PractitionerBackend\nuevorepositorio\demo\src\main\java\net\techu\BeanPersonalizacion.java
C:\PractitionerBackend\nuevorepositorio\demo\src\main\java\net\techu\Producto.java
C:\PractitionerBackend\nuevorepositorio\demo\src\main\java\net\techu\TiendaApplication.java
